{
  "database": {
    "rules": "database.rules.json"
  },
  "hosting": {
    "public": "",
    "rewrites": [
      {
        "source": "**",
        "destination": "/index.html"
      }
    ],
    "redirects": [ {
      "source" : "/foo",
      "destination" : "/bar",
      "type" : 301
    }, {
      "source" : "/firebase/*",
      "destination" : "https://firebase.google.com",
      "type" : 302
    }]
  }
}
